hw6
…
BestInShowColmName[1]<-c("Dog breed")
BestInShowColmName[7]<-c("POPULARITY with score")

names(BestInShowFullSheet) <- c(BestInShowColmName)

## Warning: The `names` must have length 75, not 71.
## This warning is displayed once per session.

## Warning: Must use a character vector as names.
## This warning is displayed once per session.

BestInShowFullSheet

## # A tibble: 174 x 75
##    `Dog breed` `NA`  category `NA`  `datadog score` `POPULARITY IN ~
##    <chr>       <lgl> <chr>    <lgl>           <dbl>            <dbl>
##  1 Border Col~ NA    herding  NA               3.64               45
##  2 Border Ter~ NA    terrier  NA               3.61               80
##  3 Brittany    NA    sporting NA               3.54               30
##  4 Cairn Terr~ NA    terrier  NA               3.53               59
##  5 Welsh Spri~ NA    sporting NA               3.34              130
##  6 English Co~ NA    sporting NA               3.33               63
##  7 Cocker Spa~ NA    sporting NA               3.3                27
##  8 Papillon    NA    toy      NA               3.26               38
##  9 Australian~ NA    herding  NA               3.25               60
## 10 Shetland S~ NA    herding  NA               3.22               20
## # ... with 164 more rows, and 69 more variables: `POPULARITY with
## #   score` <dbl>, `LIFETIME COST, $` <chr>, `5 LIFETIME COST` <dbl>,
## #   `NA` <lgl>, `1 INTELLIGENCE (TRAINABILITY) ranking` <chr>,
## #   `INTELLIGENCE (TRAINABILITY) ranking` <dbl>, `2 LONGEVITY` <chr>,
## #   LONGEVITY <dbl>, `3 NO. OF GENETIC AILMENTS` <chr>, `GENETIC
## #   AILMENTS` <dbl>, `4a average purchase price, US$` <chr>, `average
## #   purchase price, US$` <dbl>, `4b food costs per year, US$` <dbl>, `food
## #   costs per year, US$` <dbl>, `5a grooming required` <chr>, `grooming
## #   required` <dbl>, `5b suitability for children` <chr>, `suitability for
…
BestInShowFullSheet%>%group_by(`Dog breed`)

## # A tibble: 174 x 75
## # Groups:   Dog breed [174]
##    `Dog breed` `NA`  category `NA`  `datadog score` `POPULARITY IN ~
##    <chr>       <lgl> <chr>    <lgl>           <dbl>            <dbl>
##  1 Border Col~ NA    herding  NA               3.64               45
##  2 Border Ter~ NA    terrier  NA               3.61               80
##  3 Brittany    NA    sporting NA               3.54               30
##  4 Cairn Terr~ NA    terrier  NA               3.53               59
##  5 Welsh Spri~ NA    sporting NA               3.34              130
##  6 English Co~ NA    sporting NA               3.33               63
##  7 Cocker Spa~ NA    sporting NA               3.3                27
##  8 Papillon    NA    toy      NA               3.26               38
##  9 Australian~ NA    herding  NA               3.25               60
## 10 Shetland S~ NA    herding  NA               3.22               20
## # ... with 164 more rows, and 69 more variables: `POPULARITY with
## #   score` <dbl>, `LIFETIME COST, $` <chr>, `5 LIFETIME COST` <dbl>,
## #   `NA` <lgl>, `1 INTELLIGENCE (TRAINABILITY) ranking` <chr>,
## #   `INTELLIGENCE (TRAINABILITY) ranking` <dbl>, `2 LONGEVITY` <chr>,
## #   LONGEVITY <dbl>, `3 NO. OF GENETIC AILMENTS` <chr>, `GENETIC
## #   AILMENTS` <dbl>, `4a average purchase price, US$` <chr>, `average
## #   purchase price, US$` <dbl>, `4b food costs per year, US$` <dbl>, `food
## #   costs per year, US$` <dbl>, `5a grooming required` <chr>, `grooming
## #   required` <dbl>, `5b suitability for children` <chr>, `suitability for
…
